[
	{
		"_id": "a-05",
		"_parentId": "co-05",
		"_type": "article",
		"_classes": "banner_01",
		"title": "a-05",
		"displayTitle": "",
		"body": ""
	},
	{
		"_id": "a-10",
		"_parentId": "co-10",
		"_type": "article",
		"_classes": "banner_01",
		"title": "a-10",
		"displayTitle": "",
		"body": ""
	},
	{
		"_id": "a-15",
		"_parentId": "co-15",
		"_type": "article",
		"_classes": "banner_01",
		"title": "a-15",
		"displayTitle": "",
		"body": ""
	},
	{
		"_id": "a-20",
		"_parentId": "co-20",
		"_type": "article",
		"_classes": "banner_01",
		"title": "a-20",
		"displayTitle": "",
		"body": ""
	}
	
]
