﻿{
    "_id": "course",
    "_type": "course",
    "title": "Instagram For Business",
    "displayTitle": "Instagram For Business",
    "body": "",
    "_buttons": {
        "_submit": {
            "buttonText": "제출",
            "ariaLabel": "답변을 제출하려면 여기를 클릭하세요."
        },
        "_reset": {
            "buttonText": "초기화",
            "ariaLabel": "초기화하려면 여기를 클릭하세요."
        },
        "_showCorrectAnswer": {
            "buttonText": "정답",
            "ariaLabel": "정답을 확인하려면 여기를 클릭하세요."
        },
        "_hideCorrectAnswer": {
            "buttonText": "내 답변",
            "ariaLabel": "답변하신 내용을 확인하려면 여기를 클릭하세요."
        },
        "_showFeedback": {
            "buttonText": "피드백 보기",
            "ariaLabel": "피드백을 다시 확인하려면 여기를 클릭하세요."
        },
        "remainingAttemptsText": "회 남음",
        "remainingAttemptText": "마지막 시도",
        "disabledAriaLabel": "현재 버튼이 비활성화되어 있습니다."
    },
    "_globals": {
        "_components": {
            "_accordion": {
                "ariaRegion": "이 구성 요소에는 텍스트가 들어있는 콘텐츠가 포함되어 있으며, 콘텐츠를 표시하거나 숨길 수 있습니다. 콘텐츠를 표시하거나 숨기려면 제목을 누르세요.",
                "instruction": ""
            },
            "_blank": {
                "ariaRegion": "",
                "instruction": ""
            },
            "_gmcq": {
                "ariaRegion": "이 구성 요소는 그래픽으로 표시되는 객관식 질문입니다. 옵션을 선택한 후 아래의 제출 버튼을 클릭하세요.",
                "instruction": ""
            },
            "_graphic": {
                "ariaRegion": "",
                "instruction": ""
            },
            "_hotGraphic": {
                "ariaRegion": "아래 구성 요소는 아이콘이 포함된 이미지입니다. 각 아이콘을 선택하면 이미지와 텍스트가 포함된 팝업 창이 열립니다. 팝업 창을 닫으려면 닫기 버튼을 선택하세요.",
                "instruction": ""
            },
            "_matching": {
                "ariaRegion": "이 구성 요소는 아래 드롭다운 리스트에서 답변을 선택하는 질문 형식입니다. 답변을 선택한 후 제출 버튼을 선택하세요.",
                "instruction": ""
            },
            "_mcq": {
                "ariaRegion": "이 구성 요소는 객관식 질문 형식입니다. 옵션을 선택한 후 아래의 제출 버튼을 선택하세요.",
                "instruction": ""
            },
            "_media": {
                "ariaRegion": "동영상을 재생하는 미디어 구성 요소입니다. 동영상을 보거나 오디오를 들으려면 재생/일시 중지 버튼을 선택하세요. 아래 링크를 선택하여 음성 대본을 확인할 수도 있습니다.",
                "instruction": ""
            },
            "_narrative": {
                "ariaRegion": "이 구성 요소에는 여러 이미지와 관련 텍스트가 표시됩니다. 이전 또는 다음 이미지를 보려면 앞/뒤 화살표를 누르세요.",
                "instruction": ""
            },
            "_slider": {
                "ariaRegion": "이 구성 요소는 알맞은 옵션을 선택하여 답변하는 질문입니다. 값을 선택한 후 아래의 제출 버튼을 선택하세요.",
                "instruction": ""
            },
            "_text": {
                "ariaRegion": "",
                "instruction": ""
            },
            "_textInput": {
                "ariaRegion": "이 구성 요소는 텍스트 입력란에 답변을 입력하는 질문 형식입니다. 질문에 답변한 후 아래의 제출 버튼을 선택하세요.",
                "instruction": ""
            }
        },
        "_extensions": {
            "_pageLevelProgress": {
                "pageLevelProgress": "페이지 섹션",
                "pageLevelProgressEnd": "페이지 섹션 리스트의 마지막 부분입니다.",
                "pageLevelProgressIndicatorBar": "진행률 표시줄입니다. 현재 진행률을 보려면 여기를 선택하고 특정 항목을 보려면 해당 항목을 선택하세요. 완료하셨습니다 ",
                "optionalContent": "선택 사항"
            }
        },
        "_menu": {
            "_boxmenu": {
                "ariaRegion": "메뉴",
                "menuItem": "메뉴 항목입니다.",
                "menuEnd": "메뉴의 마지막 부분입니다."
            }
        },
        "_accessibility": {
            "_accessibilityToggleTextOn": "접근성 기능을 설정할까요?",
            "_accessibilityToggleTextOff": "접근성 기능을 해제할까요?",
            "_accessibilityInstructions": {
                "touch": "사용 안내입니다. 다음으로 이동하려면 왼쪽으로 살짝 미세요. 이전으로 이동하려면 오른쪽으로 살짝 미세요. 선택하려면 두 번 누르세요. 페이지 맨 위로 이동하려면 두 손가락을 사용해 위로 슬라이드하세요.",
                "notouch": "사용 안내입니다. 다음으로 이동하려면 Tab 키를 누르세요. 이전으로 이동하려면 Shift + Tab 키를 누르세요. 선택하려면 Enter 키를 누르세요. 페이지 맨 위로 이동하려면 Esc 키를 누르세요.",
                "ipad": "터치스크린 사용 안내입니다. 다음으로 이동하려면 왼쪽으로 살짝 미세요. 이전으로 이동하려면 오른쪽으로 살짝 미세요. 선택하려면 두 번 누르세요. 페이지 맨 위로 이동하려면 두 손가락을 사용해 위로 슬라이드하세요. 키보드 액세스 사용 안내입니다. 다음으로 이동하려면 왼쪽을 누르세요. 이전으로 이동하려면 오른쪽을 누르세요. 선택하려면 위/아래를 함께 누르세요."
            },
            "_ariaLabels": {
                "navigation": "과정 탐색 메뉴",
                "menuLoaded": "메뉴를 읽어들였습니다.",
                "menu": "메뉴",
                "page": "페이지",
                "pageLoaded": "페이지를 읽어들였습니다.",
                "pageEnd": "페이지의 마지막 부분입니다.",
                "previous": "뒤로",
                "navigationBack": "뒤로 이동",
                "navigationDrawer": "과정 참고 자료를 엽니다.",
                "close": "닫기",
                "closeDrawer": "창 닫기",
                "closeResources": "참고 자료 닫기",
                "resourcesEnd": "참고 자료 리스트의 마지막 부분입니다.",
                "drawerBack": "창으로 돌아가기",
                "drawer": "사이드 창 맨 위로 이동",
                "closePopup": "팝업 닫기",
                "next": "다음",
                "done": "완료",
                "complete": "완료",
                "incomplete": "미완료",
                "incorrect": "오답",
                "correct": "정답",
                "locked": "잠김",
                "accessibilityToggleButton": "접근성 기능을 설정/해제하려면 이 버튼을 클릭하세요.",
                "feedbackPopUp": "팝업이 열렸습니다.",
                "menuBack": "메뉴로 돌아가기",
                "visited": "방문함"
            }
        }
    },
    "_latestTrackingId": 19,
    "_pageLevelProgress": {
        "_isEnabled": true,
        "_altText": "개 요소가 완료되었습니다."
    },
    "_bookmarking": {
        "_isEnabled": true,
        "_level": "component",
        "title": "북마크",
        "body": "중단했던 부분부터 계속하시겠습니까?",
        "_buttons": {
            "yes": "예",
            "no": "아니요"
        }
    },
    "_analytics": {
        "_isEnabled": true
    }
}